[gd_resource type="FontVariation" load_steps=2 format=3 uid="uid://crtqckgwsuhhq"]

[ext_resource type="FontFile" uid="uid://dxmp7favkxwsh" path="res://assets/fonts/Symbola_hint.ttf" id="1_fhcu2"]

[resource]
fallbacks = Array[Font]([ExtResource("1_fhcu2")])
variation_embolden = -0.15
