[gd_scene load_steps=3 format=3 uid="uid://dhwjbhr473u0g"]

[ext_resource type="Script" path="res://src/ui/game_over_screen.gd" id="1_mynd1"]
[ext_resource type="AudioStream" uid="uid://blug0xhroe52t" path="res://src/ui/game-over.mp3" id="2_mw3q7"]

[node name="GameOverScreen" type="Node"]
script = ExtResource("1_mynd1")

[node name="Background" type="ColorRect" parent="."]
anchors_preset = 15
anchor_right = 1.0
anchor_bottom = 1.0
grow_horizontal = 2
grow_vertical = 2
color = Color(0.0431373, 0.027451, 0, 1)

[node name="MarginContainer" type="MarginContainer" parent="."]
anchors_preset = 5
anchor_left = 0.5
anchor_right = 0.5
offset_left = -222.0
offset_right = 222.0
offset_bottom = 183.0
grow_horizontal = 2
theme_type_variation = &"BigMarging"

[node name="Title" type="Label" parent="MarginContainer"]
layout_mode = 2
theme_type_variation = &"TitleLabel"
text = "Game Over!"
horizontal_alignment = 1

[node name="BackButton" type="Button" parent="."]
anchors_preset = 8
anchor_left = 0.5
anchor_top = 0.5
anchor_right = 0.5
anchor_bottom = 0.5
offset_left = -48.5
offset_top = -15.5
offset_right = 48.5
offset_bottom = 15.5
grow_horizontal = 2
grow_vertical = 2
text = "Back"

[node name="SadSound" type="AudioStreamPlayer" parent="."]
stream = ExtResource("2_mw3q7")
autoplay = true

[connection signal="button_up" from="BackButton" to="." method="_on_back_button_pressed"]
