[gd_scene load_steps=2 format=3 uid="uid://cfs2knjgpvba"]

[ext_resource type="Script" path="res://src/ui/secondary_info_screen.gd" id="1_ouwig"]

[node name="PrivacyScreen" type="Node"]
script = ExtResource("1_ouwig")

[node name="Background" type="ColorRect" parent="."]
anchors_preset = 15
anchor_right = 1.0
anchor_bottom = 1.0
grow_horizontal = 2
grow_vertical = 2
color = Color(0.0431373, 0.027451, 0, 1)

[node name="VBoxContainer" type="VBoxContainer" parent="."]
anchors_preset = 13
anchor_left = 0.5
anchor_right = 0.5
anchor_bottom = 1.0
offset_left = -439.5
offset_right = 439.5
grow_horizontal = 2
grow_vertical = 2

[node name="MarginContainer" type="MarginContainer" parent="VBoxContainer"]
layout_mode = 2
theme_type_variation = &"BigMarging"

[node name="Title" type="Label" parent="VBoxContainer/MarginContainer"]
layout_mode = 2
size_flags_horizontal = 4
size_flags_vertical = 0
theme_type_variation = &"TitleLabel"
text = "Revengate does not track you!"
horizontal_alignment = 1

[node name="PolicyLabel" type="Label" parent="VBoxContainer"]
layout_mode = 2
size_flags_horizontal = 4
text = "
This game does not collect or store any information about you or your device.

Learn more at:
http://revengate.org/privacy

"

[node name="BackButton" type="Button" parent="VBoxContainer"]
layout_mode = 2
size_flags_horizontal = 4
size_flags_vertical = 8
text = "Back"

[connection signal="button_up" from="VBoxContainer/BackButton" to="." method="_on_back_button_pressed"]
